{
  "images" : [
    {
      "idiom" : "universal",
      "scale" : "1x",
      "filename" : "contact-screen-icon.png"
    },
    {
      "idiom" : "universal",
      "scale" : "2x",
      "filename" : "contact-screen-icon@2X.png"
    },
    {
      "idiom" : "universal",
      "scale" : "3x",
      "filename" : "contact-screen-icon@3X.png"
    }
  ],
  "info" : {
    "version" : 1,
    "author" : "xcode"
  }
}